…
### Шаг 2

Анализ точек доступа:

#### 1. Определить небезопасные точки доступа (без шифрования – OPN)

``` r
unsave_td <- td_data %>% filter(privacy == "OPN") %>% select(BSSID)
unsave_td
```

    # A tibble: 42 × 1
       BSSID            
       <chr>            
     1 E8:28:C1:DC:B2:52
     2 E8:28:C1:DC:B2:50
     3 E8:28:C1:DC:B2:51
     4 E8:28:C1:DC:FF:F2
     5 00:25:00:FF:94:73
     6 E8:28:C1:DD:04:52
     7 E8:28:C1:DE:74:31
     8 E8:28:C1:DE:74:32
     9 E8:28:C1:DC:C8:32
    10 E8:28:C1:DD:04:50
    # ℹ 32 more rows
…
  arrange(BSSID, first_seen) %>%
  group_by(BSSID) %>%
  mutate(gap = as.numeric(difftime(first_seen, lag(last_seen, default = first(first_seen)))), sess_id = cumsum(gap > 2700) + 1) %>%
  group_by(BSSID, sess_id) %>%
  summarise(start = min(first_seen), end = max(last_seen), .groups = 'drop') %>%
  group_by(BSSID) %>%
  mutate(sessions = n()) %>%
  ungroup() %>%
  mutate(duration = as.numeric(end - start, units = "secs")) %>%
  arrange(desc(duration)) %>%
  select(BSSID, sessions, start, end, duration)
td_sessions
```

    # A tibble: 167 × 5
       BSSID             sessions start               end                 duration
       <chr>                <int> <dttm>              <dttm>                 <dbl>
     1 00:25:00:FF:94:73        1 2023-07-28 09:13:06 2023-07-28 11:56:21     9795
     2 E8:28:C1:DD:04:52        1 2023-07-28 09:13:09 2023-07-28 11:56:05     9776
     3 E8:28:C1:DC:B2:52        1 2023-07-28 09:13:03 2023-07-28 11:55:38     9755
     4 08:3A:2F:56:35:FE        1 2023-07-28 09:13:27 2023-07-28 11:55:53     9746
     5 6E:C7:EC:16:DA:1A        1 2023-07-28 09:13:03 2023-07-28 11:55:12     9729
     6 E8:28:C1:DC:B2:50        1 2023-07-28 09:13:06 2023-07-28 11:55:12     9726
     7 48:5B:39:F9:7A:48        1 2023-07-28 09:13:06 2023-07-28 11:55:11     9725
     8 E8:28:C1:DC:B2:51        1 2023-07-28 09:13:06 2023-07-28 11:55:11     9725
     9 E8:28:C1:DC:FF:F2        1 2023-07-28 09:13:06 2023-07-28 11:55:10     9724
    10 8E:55:4A:85:5B:01        1 2023-07-28 09:13:06 2023-07-28 11:55:09     9723
    # ℹ 157 more rows
…
#### 6. Отсортировать точки доступа по частоте отправки запросов (beacons) в единицу времени по их убыванию

``` r
td_beac <- td_data %>%
  mutate(duration = as.numeric(last_seen - first_seen, units = "secs"), 
         bps = ifelse(duration != 0, beacons / duration, NA)) %>%
  arrange(desc(bps))  %>%
  select(BSSID, essid, first_seen, last_seen, beacons, duration, bps)

td_beac
```

    # A tibble: 167 × 7
       BSSID    essid first_seen          last_seen           beacons duration   bps
       <chr>    <chr> <dttm>              <dttm>                <int>    <dbl> <dbl>
     1 F2:30:A… "iPh… 2023-07-28 10:27:02 2023-07-28 10:27:09       6        7 0.857
     2 B2:CF:C… "Мих… 2023-07-28 10:40:54 2023-07-28 10:40:59       4        5 0.8  
     3 3A:DA:0… "iPh… 2023-07-28 10:27:01 2023-07-28 10:27:10       5        9 0.556
     4 02:BC:1… "MT_… 2023-07-28 09:24:46 2023-07-28 09:24:48       1        2 0.5  
     5 00:3E:1… "MT_… 2023-07-28 10:34:03 2023-07-28 10:34:05       1        2 0.5  
     6 76:C5:A…  <NA> 2023-07-28 11:16:36 2023-07-28 11:16:38       1        2 0.5  
     7 D2:25:9… "Сан… 2023-07-28 09:45:29 2023-07-28 09:45:42       5       13 0.385
     8 BE:F1:7… "C32… 2023-07-28 09:13:03 2023-07-28 11:50:44    1647     9461 0.174
     9 00:03:7… "MT_… 2023-07-28 10:29:13 2023-07-28 10:29:19       1        6 0.167
    10 38:1A:5… "EBF… 2023-07-28 09:13:03 2023-07-28 10:25:02     704     4319 0.163
    # ℹ 157 more rows
…
#### 2. Обнаружить устройства, которые НЕ рандомизируют свой MAC адрес

``` r
client_data %>% filter(!substr(station_mac, 2, 2) %in% c("2", "6", "a", "A", "e", "E")) %>% distinct() %>% select(station_mac)
```

    # A tibble: 220 × 1
       station_mac      
       <chr>            
     1 5C:3A:45:9E:1A:7B
     2 C0:E4:34:D8:E7:E5
     3 10:51:07:CB:33:E7
     4 68:54:5A:40:35:9E
     5 74:4C:A1:70:CE:F7
     6 BC:F1:71:D4:DB:04
     7 4C:44:5B:14:76:E3
     8 A0:E7:0B:AE:D5:44
     9 00:95:69:E7:7F:35
    10 00:95:69:E7:7C:ED
    # ℹ 210 more rows
…
``` r
clusters <- client_data %>%
  filter(!is.na(probed_ESSIDs) & probed_ESSIDs != "") %>%
  mutate(networks = strsplit(probed_ESSIDs, ",")) %>%
  unnest(networks) %>%
  mutate(networks = trimws(networks)) %>%
  group_by(station_mac, networks) %>%
  summarise(first = min(first_seen), last = max(last_seen), .groups = "drop") %>%
  mutate(duration = as.numeric(last - first, units = "secs")) %>%
  arrange(station_mac, first)

clusters
```

    # A tibble: 1,831 × 5
       station_mac       networks   first               last                duration
       <chr>             <chr>      <dttm>              <dttm>                 <dbl>
     1 00:90:4C:E6:54:54 "Redmi"    2023-07-28 09:16:59 2023-07-28 10:21:15     3856
     2 00:95:69:E7:7C:ED "nvripcsu… 2023-07-28 09:13:11 2023-07-28 11:56:13     9782
     3 00:95:69:E7:7D:21 "nvripcsu… 2023-07-28 09:13:15 2023-07-28 11:56:17     9782
     4 00:95:69:E7:7F:35 "nvripcsu… 2023-07-28 09:13:11 2023-07-28 11:56:07     9776
     5 00:F4:8D:F7:C5:19 "Hornet24" 2023-07-28 10:45:04 2023-07-28 11:43:26     3502
     6 00:F4:8D:F7:C5:19 "Redmi 12" 2023-07-28 10:45:04 2023-07-28 11:43:26     3502
     7 02:00:00:00:00:00 "CPPK_FRE… 2023-07-28 09:54:40 2023-07-28 11:55:36     7256
     8 02:00:00:00:00:00 "MIREA"    2023-07-28 09:54:40 2023-07-28 11:55:36     7256
     9 02:00:00:00:00:00 "MIREA_HO… 2023-07-28 09:54:40 2023-07-28 11:55:36     7256
    10 02:00:00:00:00:00 "\\xAC\\x… 2023-07-28 09:54:40 2023-07-28 11:55:36     7256
    # ℹ 1,821 more rows
…
